…
## Attributes contain feature information

``` r
attributes(my_adat)$Col.Meta
#> # A tibble: 1,129 x 15
#>    SeqId SomaId Target TargetFullName UniProt EntrezGeneID EntrezGeneSymbol
#>    <chr> <chr>  <chr>  <chr>          <chr>   <chr>        <chr>           
#>  1 2182… SL000… C4b    Complement C4b P0C0L4… 720 721      C4A C4B         
#>  2 2190… SL002… Coagu… Coagulation F… P03951  2160         F11             
#>  3 2192… SL003… CTACK  C-C motif che… Q9Y4X3  10850        CCL27           
#>  4 2201… SL000… Endos… Endostatin     P39060  80781        COL18A1         
#>  5 2211… SL000… TIMP-1 Metalloprotei… P01033  7076         TIMP1           
#>  6 2212… SL000… tPA    Tissue-type p… P00750  5327         PLAT            
#>  7 2247… SL004… EG-VE… Prokineticin-1 P58294  84432        PROK1           
#>  8 2278… SL000… TIMP-2 Metalloprotei… P16035  7077         TIMP2           
#>  9 2333… SL000… TGF-b1 Transforming … P01137  7040         TGFB1           
#> 10 2358… SL003… VEGF … Vascular endo… P35916  2324         FLT4            
#> # … with 1,119 more rows, and 8 more variables: Organism <chr>, Units <chr>,
#> #   Type <chr>, CalReference <dbl>, Dilution <chr>, ColCheck <chr>,
#> #   Cal.Set.A <dbl>, Dilution2 <dbl>
```
…
## Visualize with `ggplot2()`

``` r
targets <- as.list(mmps$AptName) %>%
  purrr::set_names(mmps$TargetFullName)   # create SeqId -> target map
df <- data %>% 
  dplyr::select(SampleGroup, all_of(mmps$AptName)) %>% 
  dplyr::rename(!!! targets) %>% 
  tidyr::pivot_longer(-SampleGroup, names_to = "Feature", values_to = "RFU") %>% 
  tibble::as_tibble()
df
#> # A tibble: 240 x 3
#>    SampleGroup Feature                        RFU
#>    <chr>       <chr>                        <dbl>
#>  1 M           Matrix metalloproteinase-9  27323.
#>  2 M           Stromelysin-1                 454.
#>  3 M           Matrilysin                   1494.
#>  4 M           Matrix metalloproteinase-17  1016.
#>  5 M           Neutrophil collagenase       2013.
#>  6 M           Stromelysin-2                 488.
#>  7 M           72 kDa type IV collagenase   3491.
#>  8 M           Macrophage metalloelastase    547.
#>  9 M           Interstitial collagenase     1507.
#> 10 M           Collagenase 3                2203.
#> # … with 230 more rows
…
