Input/Output SomaScan Data • SomaDataIO
…
print(my_adat, show_header = TRUE)  # if simply wish to see Header info
#> ══ SomaScan Data ════════════════════════════════════════════════════════════════════════════════════
#>      Attributes intact    ✓
#>      Rows                 10
#>      Columns              5318
#>      Clinical Data        34
#>      Features             5284
#> ── Column Meta ──────────────────────────────────────────────────────────────────────────────────────
#> ℹ SeqId, SeqIdVersion, SomaId, TargetFullName, Target, UniProt, EntrezGeneID, EntrezGeneSymbol,
#> ℹ Organism, Units, Type, Dilution, PlateScale_Reference, CalReference, Cal_Example_Adat_Set001,
#> ℹ ColCheck, CalQcRatio_Example_Adat_Set001_170255, QcReference_170255, Cal_Example_Adat_Set002,
#> ℹ CalQcRatio_Example_Adat_Set002_170255, Dilution2
#> ── Header Data ──────────────────────────────────────────────────────────────────────────────────────
#> # A tibble: 35 × 2
#>    Key                  Value                                                                        
#>    <chr>                <chr>                                                                        
#>  1 AdatId               GID-1234-56-789-abcdef                                                       
#>  2 Version              1.2                                                                          
#>  3 AssayType            PharmaServices                                                               
#>  4 AssayVersion         V4                                                                           
#>  5 AssayRobot           Fluent 1 L-307                                                               
#>  6 Legal                Experiment details and data have been processed to protect Personally Identi…
#>  7 CreatedBy            PharmaServices                                                               
#>  8 CreatedDate          2020-07-24                                                                   
#>  9 EnteredBy            Technician1                                                                  
#> 10 ExpDate              2020-06-18, 2020-07-20                                                       
#> 11 GeneratedBy          Px (Build:  : ), Canopy_0.1.1                                                
#> 12 RunNotes             2 columns ('Age' and 'Sex') have been added to this ADAT. Age has been rando…
#> 13 ProcessSteps         Raw RFU, Hyb Normalization, medNormInt (SampleId), plateScale, Calibration, …
#> 14 ProteinEffectiveDate 2019-08-06                                                                   
#> 15 StudyMatrix          EDTA Plasma                                                                  
#> # … with 20 more rows
…
Wrangling

Attributes Contain File and Feature Information

names(attributes(my_adat))
#> [1] "names"       "class"       "row.names"   "Header.Meta" "Col.Meta"    "file_specs"  "row_meta"

# The `Col.Meta` attribute contains
# target annotation information
attr(my_adat, "Col.Meta")
#> # A tibble: 5,284 × 21
#>    SeqId    SeqId…¹ SomaId Targe…² Target UniProt Entre…³ Entre…⁴ Organ…⁵ Units Type  Dilut…⁶ Plate…⁷
#>    <chr>      <dbl> <chr>  <chr>   <chr>  <chr>   <chr>   <chr>   <chr>   <chr> <chr> <chr>     <dbl>
#>  1 10000-28       3 SL019… Beta-c… CRBB2  P43320  "1415"  "CRYBB… Human   RFU   Prot… 20         687.
#>  2 10001-7        3 SL002… RAF pr… c-Raf  P04049  "5894"  "RAF1"  Human   RFU   Prot… 20         228.
#>  3 10003-15       3 SL019… Zinc f… ZNF41  P51814  "7592"  "ZNF41" Human   RFU   Prot… 0.5        127.
#>  4 10006-25       3 SL019… ETS do… ELK1   P19419  "2002"  "ELK1"  Human   RFU   Prot… 20         634.
#>  5 10008-43       3 SL019… Guanyl… GUC1A  P43080  "2978"  "GUCA1… Human   RFU   Prot… 20         585 
#>  6 10011-65       3 SL019… Inosit… OCRL   Q01968  "4952"  "OCRL"  Human   RFU   Prot… 20        2807.
#>  7 10012-5        3 SL014… SAM po… SPDEF  O95238  "25803" "SPDEF" Human   RFU   Prot… 20        1623.
#>  8 10013-34       3 SL025… Fc_MOU… Fc_MO… Q99LC4  ""      ""      Mouse   RFU   Prot… 20         500.
#>  9 10014-31       3 SL007… Zinc f… SLUG   O43623  "6591"  "SNAI2" Human   RFU   Prot… 20         857.
#> 10 10015-1…       3 SL014… Voltag… KCAB2  Q13303  "8514"  "KCNAB… Human   RFU   Prot… 20         443.
#> # … with 5,274 more rows, 8 more variables: CalReference <dbl>, Cal_Example_Adat_Set001 <dbl>,
#> #   ColCheck <chr>, CalQcRatio_Example_Adat_Set001_170255 <dbl>, QcReference_170255 <dbl>,
#> #   Cal_Example_Adat_Set002 <dbl>, CalQcRatio_Example_Adat_Set002_170255 <dbl>, Dilution2 <dbl>, and
#> #   abbreviated variable names ¹​SeqIdVersion, ²​TargetFullName, ³​EntrezGeneID, ⁴​EntrezGeneSymbol,
#> #   ⁵​Organism, ⁶​Dilution, ⁷​PlateScale_Reference
…
Feature Data

The getAnalyteInfo() function creates a lookup table that links analyte feature names in the soma_adat object to the annotation data in ?Col.Meta via the common index-key, AptName, in column 1:

getAnalyteInfo(my_adat)
#> # A tibble: 5,284 × 22
#>    AptName    SeqId SeqId…¹ SomaId Targe…² Target UniProt Entre…³ Entre…⁴ Organ…⁵ Units Type  Dilut…⁶
#>    <chr>      <chr>   <dbl> <chr>  <chr>   <chr>  <chr>   <chr>   <chr>   <chr>   <chr> <chr> <chr>  
#>  1 seq.10000… 1000…       3 SL019… Beta-c… CRBB2  P43320  "1415"  "CRYBB… Human   RFU   Prot… 20     
#>  2 seq.10001… 1000…       3 SL002… RAF pr… c-Raf  P04049  "5894"  "RAF1"  Human   RFU   Prot… 20     
#>  3 seq.10003… 1000…       3 SL019… Zinc f… ZNF41  P51814  "7592"  "ZNF41" Human   RFU   Prot… 0.5    
#>  4 seq.10006… 1000…       3 SL019… ETS do… ELK1   P19419  "2002"  "ELK1"  Human   RFU   Prot… 20     
#>  5 seq.10008… 1000…       3 SL019… Guanyl… GUC1A  P43080  "2978"  "GUCA1… Human   RFU   Prot… 20     
#>  6 seq.10011… 1001…       3 SL019… Inosit… OCRL   Q01968  "4952"  "OCRL"  Human   RFU   Prot… 20     
#>  7 seq.10012… 1001…       3 SL014… SAM po… SPDEF  O95238  "25803" "SPDEF" Human   RFU   Prot… 20     
#>  8 seq.10013… 1001…       3 SL025… Fc_MOU… Fc_MO… Q99LC4  ""      ""      Mouse   RFU   Prot… 20     
#>  9 seq.10014… 1001…       3 SL007… Zinc f… SLUG   O43623  "6591"  "SNAI2" Human   RFU   Prot… 20     
#> 10 seq.10015… 1001…       3 SL014… Voltag… KCAB2  Q13303  "8514"  "KCNAB… Human   RFU   Prot… 20     
#> # … with 5,274 more rows, 9 more variables: PlateScale_Reference <dbl>, CalReference <dbl>,
#> #   Cal_Example_Adat_Set001 <dbl>, ColCheck <chr>, CalQcRatio_Example_Adat_Set001_170255 <dbl>,
#> #   QcReference_170255 <dbl>, Cal_Example_Adat_Set002 <dbl>,
#> #   CalQcRatio_Example_Adat_Set002_170255 <dbl>, Dilution2 <dbl>, and abbreviated variable names
#> #   ¹​SeqIdVersion, ²​TargetFullName, ³​EntrezGeneID, ⁴​EntrezGeneSymbol, ⁵​Organism, ⁶​Dilution
…
Compare Two Groups (M/F) via t-test

Get annotations via getAnalyteInfo():

t_tests <- getAnalyteInfo(cleanData) |>
  select(AptName, SeqId, Target = TargetFullName, EntrezGeneSymbol, UniProt)

# Feature data info:
#   Subset via dplyr::filter(t_tests, ...) here to
#   restrict analysis to only certain analytes
t_tests
#> # A tibble: 5,284 × 5
#>    AptName       SeqId     Target                                                 EntrezGen…¹ UniProt
#>    <chr>         <chr>     <chr>                                                  <chr>       <chr>  
#>  1 seq.10000.28  10000-28  Beta-crystallin B2                                     "CRYBB2"    P43320 
#>  2 seq.10001.7   10001-7   RAF proto-oncogene serine/threonine-protein kinase     "RAF1"      P04049 
#>  3 seq.10003.15  10003-15  Zinc finger protein 41                                 "ZNF41"     P51814 
#>  4 seq.10006.25  10006-25  ETS domain-containing protein Elk-1                    "ELK1"      P19419 
#>  5 seq.10008.43  10008-43  Guanylyl cyclase-activating protein 1                  "GUCA1A"    P43080 
#>  6 seq.10011.65  10011-65  Inositol polyphosphate 5-phosphatase OCRL-1            "OCRL"      Q01968 
#>  7 seq.10012.5   10012-5   SAM pointed domain-containing Ets transcription factor "SPDEF"     O95238 
#>  8 seq.10013.34  10013-34  Fc_MOUSE                                               ""          Q99LC4 
#>  9 seq.10014.31  10014-31  Zinc finger protein SNAI2                              "SNAI2"     O43623 
#> 10 seq.10015.119 10015-119 Voltage-gated potassium channel subunit beta-2         "KCNAB2"    Q13303 
#> # … with 5,274 more rows, and abbreviated variable name ¹​EntrezGeneSymbol
…
t_tests <- t_tests |>
  mutate(
    formula = map(AptName, ~ as.formula(paste(.x, "~ Sex"))), # create formula
    t_test  = map(formula, ~ stats::t.test(.x, data = cleanData)),  # fit t-tests
    t_stat  = map_dbl(t_test, "statistic"),            # pull out t-statistic
    p.value = map_dbl(t_test, "p.value"),              # pull out p-values
    fdr     = p.adjust(p.value, method = "BH")         # FDR for multiple testing
  ) |>
  arrange(p.value) |>            # re-order by `p-value`
  mutate(rank = row_number())    # add numeric ranks

# View analysis tibble
t_tests
#> # A tibble: 5,284 × 11
#>    AptName      SeqId    Target      Entre…¹ UniProt formula   t_test  t_stat  p.value      fdr  rank
#>    <chr>        <chr>    <chr>       <chr>   <chr>   <list>    <list>   <dbl>    <dbl>    <dbl> <int>
#>  1 seq.8468.19  8468-19  Prostate-s… KLK3    P07288  <formula> <htest> -22.1  2.46e-43 1.30e-39     1
#>  2 seq.6580.29  6580-29  Pregnancy … PZP     P20742  <formula> <htest>  14.2  3.07e-28 8.12e-25     2
#>  3 seq.7926.13  7926-13  Kunitz-typ… SPINT3  P49223  <formula> <htest> -11.1  6.16e-21 1.08e-17     3
#>  4 seq.3032.11  3032-11  Follicle s… CGA FS… P01215… <formula> <htest>   9.67 4.68e-17 6.18e-14     4
#>  5 seq.16892.23 16892-23 Ectonucleo… ENPP2   Q13822  <formula> <htest>   9.37 6.45e-17 6.82e-14     5
#>  6 seq.5763.67  5763-67  Beta-defen… DEFB10… Q8WTQ1  <formula> <htest>  -8.71 9.11e-15 8.02e-12     6
#>  7 seq.9282.12  9282-12  Cysteine-r… CRISP2  P16562  <formula> <htest>  -8.47 1.16e-14 8.74e-12     7
#>  8 seq.2953.31  2953-31  Luteinizin… CGA LHB P01215… <formula> <htest>   8.55 2.58e-14 1.71e-11     8
#>  9 seq.4914.10  4914-10  Human Chor… CGA CGB P01215… <formula> <htest>   8.14 3.99e-13 2.34e-10     9
#> 10 seq.2474.54  2474-54  Serum amyl… APCS    P02743  <formula> <htest>  -7.40 1.08e-11 5.72e- 9    10
#> # … with 5,274 more rows, and abbreviated variable name ¹​EntrezGeneSymbol
…
plot_tbl <- example_data |>
  filter(SampleType == "Sample") |>     # rm control samples
  drop_na(Sex) |>                       # rm NAs if present
  log10() |>                            # log10-transform for plotting
  select(Sex, target_map$AptName) |>    # top 12 analytes
  pivot_longer(cols = -Sex, names_to = "AptName", values_to = "RFU") |>
  dplyr::left_join(target_map) |>
  # order factor levels by 't_tests' rank to order plots below
  mutate(Target = factor(Target, levels = target_map$Target))
#> Joining with `by = join_by(AptName)`

plot_tbl
#> # A tibble: 2,040 × 4
#>    Sex   AptName        RFU Target                                                          
#>    <chr> <chr>        <dbl> <fct>                                                           
#>  1 F     seq.8468.19   2.54 Prostate-specific antigen                                       
#>  2 F     seq.6580.29   4.06 Pregnancy zone protein                                          
#>  3 F     seq.7926.13   2.66 Kunitz-type protease inhibitor 3                                
#>  4 F     seq.3032.11   3.26 Follicle stimulating hormone                                    
#>  5 F     seq.16892.23  3.44 Ectonucleotide pyrophosphatase/phosphodiesterase family member 2
#>  6 F     seq.5763.67   2.52 Beta-defensin 104                                               
#>  7 F     seq.9282.12   2.94 Cysteine-rich secretory protein 2                               
#>  8 F     seq.2953.31   2.99 Luteinizing hormone                                             
#>  9 F     seq.4914.10   3.93 Human Chorionic Gonadotropin                                    
#> 10 F     seq.2474.54   4.71 Serum amyloid P-component                                       
#> # … with 2,030 more rows
…
LR_tbl <- getAnalyteInfo(train) |>
  select(AptName, SeqId, Target = TargetFullName, EntrezGeneSymbol, UniProt) |>
  mutate(
    formula  = map(AptName, ~ as.formula(paste("Group ~", .x))),  # create formula
    model    = map(formula, ~ stats::glm(.x, data = train, family = "binomial", model = FALSE)),  # fit glm()
    beta_hat = map_dbl(model, ~ coef(.x)[2L]),      # pull out coef Beta
    p.value  = map2_dbl(model, AptName, ~ {
      summary(.x)$coefficients[.y, "Pr(>|z|)"] }),  # pull out p-values
    fdr      = p.adjust(p.value, method = "BH")     # FDR correction multiple testing
  ) |>
  arrange(p.value) |>            # re-order by `p-value`
  mutate(rank = row_number())    # add numeric ranks

LR_tbl
#> # A tibble: 5,284 × 11
#>    AptName      SeqId    Target         Entre…¹ UniProt formula   model beta_…² p.value     fdr  rank
#>    <chr>        <chr>    <chr>          <chr>   <chr>   <list>    <lis>   <dbl>   <dbl>   <dbl> <int>
#>  1 seq.6580.29  6580-29  Pregnancy zon… PZP     P20742  <formula> <glm>   -3.07 5.09e-9 1.98e-5     1
#>  2 seq.5763.67  5763-67  Beta-defensin… DEFB10… Q8WTQ1  <formula> <glm>    3.13 7.50e-9 1.98e-5     2
#>  3 seq.3032.11  3032-11  Follicle stim… CGA FS… P01215… <formula> <glm>   -1.64 2.27e-8 3.99e-5     3
#>  4 seq.7926.13  7926-13  Kunitz-type p… SPINT3  P49223  <formula> <glm>    2.90 3.35e-8 4.42e-5     4
#>  5 seq.2953.31  2953-31  Luteinizing h… CGA LHB P01215… <formula> <glm>   -1.58 1.22e-7 1.28e-4     5
#>  6 seq.16892.23 16892-23 Ectonucleotid… ENPP2   Q13822  <formula> <glm>   -1.89 1.46e-7 1.28e-4     6
#>  7 seq.4914.10  4914-10  Human Chorion… CGA CGB P01215… <formula> <glm>   -1.56 1.75e-7 1.32e-4     7
#>  8 seq.9282.12  9282-12  Cysteine-rich… CRISP2  P16562  <formula> <glm>    1.91 3.43e-7 2.27e-4     8
#>  9 seq.2474.54  2474-54  Serum amyloid… APCS    P02743  <formula> <glm>    1.79 3.00e-6 1.76e-3     9
#> 10 seq.7139.14  7139-14  SLIT and NTRK… SLITRK4 Q8IW52  <formula> <glm>    1.21 3.86e-6 2.04e-3    10
#> # … with 5,274 more rows, and abbreviated variable names ¹​EntrezGeneSymbol, ²​beta_hat
…
LinR_tbl <- getAnalyteInfo(train) |>                # `train` from above
  select(AptName, SeqId, Target = TargetFullName, EntrezGeneSymbol, UniProt) |>
  mutate(
    formula = map(AptName, ~ as.formula(paste("Age ~", .x, collapse = " + "))),
    model   = map(formula, ~ lm(.x, data = train, model = FALSE)),  # fit linear models
    slope   = map_dbl(model, ~ coef(.x)[2L]),       # pull out B_1
    p.value = map2_dbl(model, AptName, ~ {
      summary(.x)$coefficients[.y, "Pr(>|t|)"] }),  # pull out p-values
    fdr     = p.adjust(p.value, method = "BH")      # FDR for multiple testing
  ) |>
  arrange(p.value) |>            # re-order by `p-value`
  mutate(rank = row_number())    # add numeric ranks

LinR_tbl
#> # A tibble: 5,284 × 11
#>    AptName      SeqId    Target          Entre…¹ UniProt formula   model slope  p.value     fdr  rank
#>    <chr>        <chr>    <chr>           <chr>   <chr>   <list>    <lis> <dbl>    <dbl>   <dbl> <int>
#>  1 seq.3045.72  3045-72  Pleiotrophin    PTN     P21246  <formula> <lm>   6.70 4.25e-10 2.25e-6     1
#>  2 seq.4496.60  4496-60  Macrophage met… MMP12   P39900  <formula> <lm>   6.31 1.28e- 9 2.58e-6     2
#>  3 seq.15640.54 15640-54 Transgelin      TAGLN   Q01995  <formula> <lm>   6.74 1.46e- 9 2.58e-6     3
#>  4 seq.6392.7   6392-7   WNT1-inducible… WISP2   O76076  <formula> <lm>   6.32 2.84e- 9 3.76e-6     4
#>  5 seq.15386.7  15386-7  Fatty acid-bin… FABP4   P15090  <formula> <lm>   5.87 6.65e- 9 7.03e-6     5
#>  6 seq.4374.45  4374-45  Growth/differe… GDF15   Q99988  <formula> <lm>   5.95 1.26e- 8 1.11e-5     6
#>  7 seq.2609.59  2609-59  Cystatin-C      CST3    P01034  <formula> <lm>   5.60 3.11e- 8 2.35e-5     7
#>  8 seq.8480.29  8480-29  EGF-containing… EFEMP1  Q12805  <formula> <lm>   6.00 1.47e- 7 8.48e-5     8
#>  9 seq.15533.97 15533-97 Macrophage sca… MSR1    P21757  <formula> <lm>   5.51 1.50e- 7 8.48e-5     9
#> 10 seq.3362.61  3362-61  Chordin-like p… CHRDL1  Q9BU40  <formula> <lm>   5.35 1.86e- 7 8.48e-5    10
#> # … with 5,274 more rows, and abbreviated variable name ¹​EntrezGeneSymbol
…
