…
- analytes/reagents with high intra-assay CV (Coefficient of Variation)
- analytes/reagents signaling near background or saturation levels

#### Accessing CCC

The
[`getSomaScanLiftCCC()`](https://somalogic.github.io/SomaDataIO/dev/reference/adat-helpers.md)
function retrieves these values from an internal object for either
`"serum"` and `"plasma"`.

``` r
plasma <- getSomaScanLiftCCC("p")
plasma
#> # A tibble: 11,083 × 4
#>    SeqId  plasma_11k_to_5k_ccc plasma_11k_to_7k_ccc plasma_7k_to_5k_ccc
#>    <chr>                 <dbl>                <dbl>               <dbl>
#>  1 10000…                0.966                0.982               0.963
#>  2 10001…                0.86                 0.961               0.875
#>  3 10003…                0.674                0.787               0.668
#>  4 10006…                0.864                0.927               0.877
#>  5 10008…                0.879                0.939               0.908
#>  6 10010…               NA                    0.915              NA    
#>  7 10011…                0.642                0.784               0.743
#>  8 10012…                0.528                0.661               0.591
#>  9 10013…                0.76                 0.824               0.744
#> 10 10014…                0.934                0.971               0.941
#> # ℹ 11,073 more rows

serum <- getSomaScanLiftCCC("s")
serum
#> # A tibble: 11,083 × 4
#>    SeqId    serum_11k_to_5k_ccc serum_11k_to_7k_ccc serum_7k_to_5k_ccc
#>    <chr>                  <dbl>               <dbl>              <dbl>
#>  1 10000-28               0.97                0.977              0.967
#>  2 10001-7                0.819               0.857              0.875
#>  3 10003-15               0.761               0.759              0.774
#>  4 10006-25               0.903               0.937              0.937
#>  5 10008-43               0.915               0.951              0.925
#>  6 10010-10              NA                   0.895             NA    
#>  7 10011-65               0.515               0.748              0.741
#>  8 10012-5                0.57                0.717              0.716
#>  9 10013-34               0.716               0.86               0.778
#> 10 10014-31               0.906               0.951              0.913
#> # ℹ 11,073 more rows
```
…
