Binary Classification • SomaDataIO
…
LR_tbl <- getAnalyteInfo(train) |>
  select(AptName, SeqId, Target = TargetFullName, EntrezGeneSymbol, UniProt) |>
  mutate(
    formula  = map(AptName, ~ as.formula(paste("Group ~", .x))),  # create formula
    model    = map(formula, ~ stats::glm(.x, data = train, family = "binomial", model = FALSE)),  # fit glm()
    beta_hat = map(model, coef) |> map_dbl(2L),     # pull out coef Beta
    p.value  = map2_dbl(model, AptName, ~ {
      summary(.x)$coefficients[.y, "Pr(>|z|)"] }),  # pull out p-values
    fdr      = p.adjust(p.value, method = "BH")     # FDR correction multiple testing
  ) |>
  arrange(p.value) |>            # re-order by `p-value`
  mutate(rank = row_number())    # add numeric ranks

LR_tbl
#> # A tibble: 5,284 × 11
#>    AptName  SeqId Target EntrezGeneSymbol UniProt formula   model beta_hat
#>    <chr>    <chr> <chr>  <chr>            <chr>   <list>    <lis>    <dbl>
#>  1 seq.658… 6580… Pregn… PZP              P20742  <formula> <glm>    -3.07
#>  2 seq.576… 5763… Beta-… DEFB104A         Q8WTQ1  <formula> <glm>     3.13
#>  3 seq.303… 3032… Folli… CGA FSHB         P01215… <formula> <glm>    -1.64
#>  4 seq.792… 7926… Kunit… SPINT3           P49223  <formula> <glm>     2.90
#>  5 seq.295… 2953… Lutei… CGA LHB          P01215… <formula> <glm>    -1.58
#>  6 seq.168… 1689… Ecton… ENPP2            Q13822  <formula> <glm>    -1.89
#>  7 seq.491… 4914… Human… CGA CGB          P01215… <formula> <glm>    -1.56
#>  8 seq.928… 9282… Cyste… CRISP2           P16562  <formula> <glm>     1.91
#>  9 seq.247… 2474… Serum… APCS             P02743  <formula> <glm>     1.79
#> 10 seq.713… 7139… SLIT … SLITRK4          Q8IW52  <formula> <glm>     1.21
#> # ℹ 5,274 more rows
#> # ℹ 3 more variables: p.value <dbl>, fdr <dbl>, rank <int>
…
