Linear Regression • SomaDataIO
…
LinR_tbl <- getAnalyteInfo(train) |>                # `train` from above
  select(AptName, SeqId, Target = TargetFullName, EntrezGeneSymbol, UniProt) |>
  mutate(
    formula = map(AptName, ~ as.formula(paste("Age ~", .x, collapse = " + "))),
    model   = map(formula, ~ stats::lm(.x, data = train, model = FALSE)), # fit models
    slope   = map(model, coef) |> map_dbl(2L),     # pull out B_1
    p.value = map2_dbl(model, AptName, ~ {
      summary(.x)$coefficients[.y, "Pr(>|t|)"] }), # pull out p-values
    fdr     = p.adjust(p.value, method = "BH")     # FDR for multiple testing
  ) |>
  arrange(p.value) |>            # re-order by `p-value`
  mutate(rank = row_number())    # add numeric ranks

LinR_tbl
#> # A tibble: 5,284 × 11
#>    AptName     SeqId Target EntrezGeneSymbol UniProt formula   model slope
#>    <chr>       <chr> <chr>  <chr>            <chr>   <list>    <lis> <dbl>
#>  1 seq.3045.72 3045… Pleio… PTN              P21246  <formula> <lm>   6.70
#>  2 seq.4496.60 4496… Macro… MMP12            P39900  <formula> <lm>   6.31
#>  3 seq.15640.… 1564… Trans… TAGLN            Q01995  <formula> <lm>   6.74
#>  4 seq.6392.7  6392… WNT1-… WISP2            O76076  <formula> <lm>   6.32
#>  5 seq.15386.7 1538… Fatty… FABP4            P15090  <formula> <lm>   5.87
#>  6 seq.4374.45 4374… Growt… GDF15            Q99988  <formula> <lm>   5.95
#>  7 seq.2609.59 2609… Cysta… CST3             P01034  <formula> <lm>   5.60
#>  8 seq.8480.29 8480… EGF-c… EFEMP1           Q12805  <formula> <lm>   6.00
#>  9 seq.15533.… 1553… Macro… MSR1             P21757  <formula> <lm>   5.51
#> 10 seq.3362.61 3362… Chord… CHRDL1           Q9BU40  <formula> <lm>   5.35
#> # ℹ 5,274 more rows
#> # ℹ 3 more variables: p.value <dbl>, fdr <dbl>, rank <int>
…
