Get Analyte Annotation Information — getAnalyteInfo • SomaDataIO
…
    See also

    getAnalytes(), is_intact_attr(), read_adat()

    Author

    Stu Field

    Examples

# Get Aptamer table
anno_tbl <- getAnalyteInfo(example_data)
anno_tbl
#> # A tibble: 5,284 × 22
#>    AptName  SeqId SeqIdVersion SomaId TargetFullName Target UniProt EntrezGeneID
#>    <chr>    <chr>        <dbl> <chr>  <chr>          <chr>  <chr>   <chr>       
#>  1 seq.100… 1000…            3 SL019… Beta-crystall… CRBB2  P43320  "1415"      
#>  2 seq.100… 1000…            3 SL002… RAF proto-onc… c-Raf  P04049  "5894"      
#>  3 seq.100… 1000…            3 SL019… Zinc finger p… ZNF41  P51814  "7592"      
#>  4 seq.100… 1000…            3 SL019… ETS domain-co… ELK1   P19419  "2002"      
#>  5 seq.100… 1000…            3 SL019… Guanylyl cycl… GUC1A  P43080  "2978"      
#>  6 seq.100… 1001…            3 SL019… Inositol poly… OCRL   Q01968  "4952"      
#>  7 seq.100… 1001…            3 SL014… SAM pointed d… SPDEF  O95238  "25803"     
#>  8 seq.100… 1001…            3 SL025… Fc_MOUSE       Fc_MO… Q99LC4  ""          
#>  9 seq.100… 1001…            3 SL007… Zinc finger p… SLUG   O43623  "6591"      
#> 10 seq.100… 1001…            3 SL014… Voltage-gated… KCAB2  Q13303  "8514"      
#> # ℹ 5,274 more rows
#> # ℹ 14 more variables: EntrezGeneSymbol <chr>, Organism <chr>, Units <chr>,
#> #   Type <chr>, Dilution <chr>, PlateScale_Reference <dbl>, CalReference <dbl>,
#> #   Cal_Example_Adat_Set001 <dbl>, ColCheck <chr>,
#> #   CalQcRatio_Example_Adat_Set001_170255 <dbl>, QcReference_170255 <dbl>,
#> #   Cal_Example_Adat_Set002 <dbl>, CalQcRatio_Example_Adat_Set002_170255 <dbl>,
#> #   Dilution2 <dbl>

# Use `dplyr::group_by()`
dplyr::tally(dplyr::group_by(anno_tbl, Dilution))  # print summary by dilution
#> # A tibble: 4 × 2
#>   Dilution     n
#>   <chr>    <int>
#> 1 0           12
#> 2 0.005      173
#> 3 0.5        828
#> 4 20        4271

# Columns containing "Target"
anno_tbl |>
  dplyr::select(dplyr::contains("Target"))
#> # A tibble: 5,284 × 2
#>    TargetFullName                                         Target  
#>    <chr>                                                  <chr>   
#>  1 Beta-crystallin B2                                     CRBB2   
#>  2 RAF proto-oncogene serine/threonine-protein kinase     c-Raf   
#>  3 Zinc finger protein 41                                 ZNF41   
#>  4 ETS domain-containing protein Elk-1                    ELK1    
#>  5 Guanylyl cyclase-activating protein 1                  GUC1A   
#>  6 Inositol polyphosphate 5-phosphatase OCRL-1            OCRL    
#>  7 SAM pointed domain-containing Ets transcription factor SPDEF   
#>  8 Fc_MOUSE                                               Fc_MOUSE
#>  9 Zinc finger protein SNAI2                              SLUG    
#> 10 Voltage-gated potassium channel subunit beta-2         KCAB2   
#> # ℹ 5,274 more rows
…
