Pre-Process an ADAT Object for Analysis — preProcessAdat • SomaDataIO
…
#>      Attributes intact    ✓
#>      Rows                 168
#>      Columns              5013
#>      Clinical Data        34
#>      Features             4979
#> ── Column Meta ────────────────────────────────────────────────────────
#> ℹ SeqId, SeqIdVersion, SomaId, TargetFullName, Target,
#> ℹ UniProt, EntrezGeneID, EntrezGeneSymbol, Organism, Units,
#> ℹ Type, Dilution, PlateScale_Reference, CalReference,
#> ℹ Cal_Example_Adat_Set001, ColCheck,
#> ℹ CalQcRatio_Example_Adat_Set001_170255, QcReference_170255,
#> ℹ Cal_Example_Adat_Set002,
#> ℹ CalQcRatio_Example_Adat_Set002_170255, Dilution2
#> ── Tibble ─────────────────────────────────────────────────────────────
#> # A tibble: 168 × 5,014
#>    row_names      PlateId  PlateRunDate ScannerID PlatePosition SlideId
#>    <chr>          <chr>    <chr>        <chr>     <chr>           <dbl>
#>  1 258495800012_3 Example… 2020-06-18   SG152144… H9            2.58e11
#>  2 258495800004_7 Example… 2020-06-18   SG152144… H8            2.58e11
#>  3 258495800010_8 Example… 2020-06-18   SG152144… H7            2.58e11
#>  4 258495800003_4 Example… 2020-06-18   SG152144… H6            2.58e11
#>  5 258495800009_4 Example… 2020-06-18   SG152144… H5            2.58e11
#>  6 258495800012_8 Example… 2020-06-18   SG152144… H4            2.58e11
#>  7 258495800001_3 Example… 2020-06-18   SG152144… H3            2.58e11
#>  8 258495800004_8 Example… 2020-06-18   SG152144… H2            2.58e11
#>  9 258495800001_8 Example… 2020-06-18   SG152144… H12           2.58e11
#> 10 258495800009_8 Example… 2020-06-18   SG152144… H10           2.58e11
#> # ℹ 158 more rows
#> # ℹ 5,008 more variables: Subarray <dbl>, SampleId <chr>,
#> #   SampleType <chr>, PercentDilution <int>, SampleMatrix <chr>,
#> #   Barcode <lgl>, Barcode2d <chr>, SampleName <lgl>,
#> #   SampleNotes <lgl>, AliquotingNotes <lgl>, …
…
