SomaDataIO: Input/Output 'SomaScan' Data — SomaDataIO-package • SomaDataIO
…
    Examples

# a listing of all pkg functions
library(help = SomaDataIO)

# the `soma_adat` class
class(example_data)
#> [1] "soma_adat"  "data.frame"
is.soma_adat(example_data)
#> [1] TRUE

# Annotations Lookup Table
anno_tbl <- getAnalyteInfo(example_data)
anno_tbl
#> # A tibble: 5,284 × 22
#>    AptName  SeqId SeqIdVersion SomaId TargetFullName Target UniProt EntrezGeneID
#>    <chr>    <chr>        <dbl> <chr>  <chr>          <chr>  <chr>   <chr>       
#>  1 seq.100… 1000…            3 SL019… Beta-crystall… CRBB2  P43320  "1415"      
#>  2 seq.100… 1000…            3 SL002… RAF proto-onc… c-Raf  P04049  "5894"      
#>  3 seq.100… 1000…            3 SL019… Zinc finger p… ZNF41  P51814  "7592"      
#>  4 seq.100… 1000…            3 SL019… ETS domain-co… ELK1   P19419  "2002"      
#>  5 seq.100… 1000…            3 SL019… Guanylyl cycl… GUC1A  P43080  "2978"      
#>  6 seq.100… 1001…            3 SL019… Inositol poly… OCRL   Q01968  "4952"      
#>  7 seq.100… 1001…            3 SL014… SAM pointed d… SPDEF  O95238  "25803"     
#>  8 seq.100… 1001…            3 SL025… Fc_MOUSE       Fc_MO… Q99LC4  ""          
#>  9 seq.100… 1001…            3 SL007… Zinc finger p… SLUG   O43623  "6591"      
#> 10 seq.100… 1001…            3 SL014… Voltage-gated… KCAB2  Q13303  "8514"      
#> # ℹ 5,274 more rows
#> # ℹ 14 more variables: EntrezGeneSymbol <chr>, Organism <chr>, Units <chr>,
#> #   Type <chr>, Dilution <chr>, PlateScale_Reference <dbl>, CalReference <dbl>,
#> #   Cal_Example_Adat_Set001 <dbl>, ColCheck <chr>,
#> #   CalQcRatio_Example_Adat_Set001_170255 <dbl>, QcReference_170255 <dbl>,
#> #   Cal_Example_Adat_Set002 <dbl>, CalQcRatio_Example_Adat_Set002_170255 <dbl>,
#> #   Dilution2 <dbl>
…
