Example Data and Objects — SomaScanObjects • SomaDataIO
…
#>      Attributes intact    ✓
#>      Rows                 192
#>      Columns              5318
#>      Clinical Data        34
#>      Features             5284
#> ── Column Meta ────────────────────────────────────────────────────────
#> ℹ SeqId, SeqIdVersion, SomaId, TargetFullName, Target,
#> ℹ UniProt, EntrezGeneID, EntrezGeneSymbol, Organism, Units,
#> ℹ Type, Dilution, PlateScale_Reference, CalReference,
#> ℹ Cal_Example_Adat_Set001, ColCheck,
#> ℹ CalQcRatio_Example_Adat_Set001_170255, QcReference_170255,
#> ℹ Cal_Example_Adat_Set002,
#> ℹ CalQcRatio_Example_Adat_Set002_170255, Dilution2
#> ── Tibble ─────────────────────────────────────────────────────────────
#> # A tibble: 192 × 5,319
#>    row_names      PlateId  PlateRunDate ScannerID PlatePosition SlideId
#>    <chr>          <chr>    <chr>        <chr>     <chr>           <dbl>
#>  1 258495800012_3 Example… 2020-06-18   SG152144… H9            2.58e11
#>  2 258495800004_7 Example… 2020-06-18   SG152144… H8            2.58e11
#>  3 258495800010_8 Example… 2020-06-18   SG152144… H7            2.58e11
#>  4 258495800003_4 Example… 2020-06-18   SG152144… H6            2.58e11
#>  5 258495800009_4 Example… 2020-06-18   SG152144… H5            2.58e11
#>  6 258495800012_8 Example… 2020-06-18   SG152144… H4            2.58e11
#>  7 258495800001_3 Example… 2020-06-18   SG152144… H3            2.58e11
#>  8 258495800004_8 Example… 2020-06-18   SG152144… H2            2.58e11
#>  9 258495800001_8 Example… 2020-06-18   SG152144… H12           2.58e11
#> 10 258495800004_3 Example… 2020-06-18   SG152144… H11           2.58e11
#> # ℹ 182 more rows
#> # ℹ 5,313 more variables: Subarray <dbl>, SampleId <chr>,
#> #   SampleType <chr>, PercentDilution <int>, SampleMatrix <chr>,
#> #   Barcode <lgl>, Barcode2d <chr>, SampleName <lgl>,
#> #   SampleNotes <lgl>, AliquotingNotes <lgl>, …
…
#>      Attributes intact    ✓
#>      Rows                 192
#>      Columns              5318
#>      Clinical Data        34
#>      Features             5284
#> ── Column Meta ────────────────────────────────────────────────────────
#> ℹ SeqId, SeqIdVersion, SomaId, TargetFullName, Target,
#> ℹ UniProt, EntrezGeneID, EntrezGeneSymbol, Organism, Units,
#> ℹ Type, Dilution, PlateScale_Reference, CalReference,
#> ℹ Cal_Example_Adat_Set001, ColCheck,
#> ℹ CalQcRatio_Example_Adat_Set001_170255, QcReference_170255,
#> ℹ Cal_Example_Adat_Set002,
#> ℹ CalQcRatio_Example_Adat_Set002_170255, Dilution2
#> ── Header Data ────────────────────────────────────────────────────────
#> # A tibble: 35 × 2
#>    Key                  Value                                          
#>    <chr>                <chr>                                          
#>  1 AdatId               GID-1234-56-789-abcdef                         
#>  2 Version              1.2                                            
#>  3 AssayType            PharmaServices                                 
#>  4 AssayVersion         V4                                             
#>  5 AssayRobot           Fluent 1 L-307                                 
#>  6 Legal                Experiment details and data have been processe…
#>  7 CreatedBy            PharmaServices                                 
#>  8 CreatedDate          2020-07-24                                     
#>  9 EnteredBy            Technician1                                    
#> 10 ExpDate              2020-06-18, 2020-07-20                         
#> 11 GeneratedBy          Px (Build:  : ), Canopy_0.1.1                  
#> 12 RunNotes             2 columns ('Age' and 'Sex') have been added to…
#> 13 ProcessSteps         Raw RFU, Hyb Normalization, medNormInt (Sample…
#> 14 ProteinEffectiveDate 2019-08-06                                     
#> 15 StudyMatrix          EDTA Plasma                                    
#> # ℹ 20 more rows
…
class(example_data)
#> [1] "soma_adat"  "data.frame"

# Features/Analytes
head(ex_analytes, 20L)
#>  [1] "seq.10000.28"  "seq.10001.7"   "seq.10003.15"  "seq.10006.25" 
#>  [5] "seq.10008.43"  "seq.10011.65"  "seq.10012.5"   "seq.10013.34" 
#>  [9] "seq.10014.31"  "seq.10015.119" "seq.10021.1"   "seq.10022.207"
#> [13] "seq.10023.32"  "seq.10024.44"  "seq.10030.8"   "seq.10034.16" 
#> [17] "seq.10035.6"   "seq.10036.201" "seq.10037.98"  "seq.10040.63" 

# Feature info table (annotations)
ex_anno_tbl
#> # A tibble: 5,284 × 22
#>    AptName      SeqId SeqIdVersion SomaId TargetFullName Target UniProt
#>    <chr>        <chr>        <dbl> <chr>  <chr>          <chr>  <chr>  
#>  1 seq.10000.28 1000…            3 SL019… Beta-crystall… CRBB2  P43320 
#>  2 seq.10001.7  1000…            3 SL002… RAF proto-onc… c-Raf  P04049 
#>  3 seq.10003.15 1000…            3 SL019… Zinc finger p… ZNF41  P51814 
#>  4 seq.10006.25 1000…            3 SL019… ETS domain-co… ELK1   P19419 
#>  5 seq.10008.43 1000…            3 SL019… Guanylyl cycl… GUC1A  P43080 
#>  6 seq.10011.65 1001…            3 SL019… Inositol poly… OCRL   Q01968 
#>  7 seq.10012.5  1001…            3 SL014… SAM pointed d… SPDEF  O95238 
#>  8 seq.10013.34 1001…            3 SL025… Fc_MOUSE       Fc_MO… Q99LC4 
#>  9 seq.10014.31 1001…            3 SL007… Zinc finger p… SLUG   O43623 
#> 10 seq.10015.1… 1001…            3 SL014… Voltage-gated… KCAB2  Q13303 
#> # ℹ 5,274 more rows
#> # ℹ 15 more variables: EntrezGeneID <chr>, EntrezGeneSymbol <chr>,
#> #   Organism <chr>, Units <chr>, Type <chr>, Dilution <chr>,
#> #   PlateScale_Reference <dbl>, CalReference <dbl>,
#> #   Cal_Example_Adat_Set001 <dbl>, ColCheck <chr>,
#> #   CalQcRatio_Example_Adat_Set001_170255 <dbl>,
#> #   QcReference_170255 <dbl>, Cal_Example_Adat_Set002 <dbl>, …
…
