…
``` r
# a listing of all pkg functions
library(help = SomaDataIO)

# the `soma_adat` class
class(example_data)
#> [1] "soma_adat"  "data.frame"
is.soma_adat(example_data)
#> [1] TRUE

# Annotations Lookup Table
anno_tbl <- getAnalyteInfo(example_data)
anno_tbl
#> # A tibble: 5,284 × 22
#>    AptName      SeqId SeqIdVersion SomaId TargetFullName Target UniProt
#>    <chr>        <chr>        <dbl> <chr>  <chr>          <chr>  <chr>  
#>  1 seq.10000.28 1000…            3 SL019… Beta-crystall… CRBB2  P43320 
#>  2 seq.10001.7  1000…            3 SL002… RAF proto-onc… c-Raf  P04049 
#>  3 seq.10003.15 1000…            3 SL019… Zinc finger p… ZNF41  P51814 
#>  4 seq.10006.25 1000…            3 SL019… ETS domain-co… ELK1   P19419 
#>  5 seq.10008.43 1000…            3 SL019… Guanylyl cycl… GUC1A  P43080 
#>  6 seq.10011.65 1001…            3 SL019… Inositol poly… OCRL   Q01968 
#>  7 seq.10012.5  1001…            3 SL014… SAM pointed d… SPDEF  O95238 
#>  8 seq.10013.34 1001…            3 SL025… Fc_MOUSE       Fc_MO… Q99LC4 
#>  9 seq.10014.31 1001…            3 SL007… Zinc finger p… SLUG   O43623 
#> 10 seq.10015.1… 1001…            3 SL014… Voltage-gated… KCAB2  Q13303 
#> # ℹ 5,274 more rows
#> # ℹ 15 more variables: EntrezGeneID <chr>, EntrezGeneSymbol <chr>,
#> #   Organism <chr>, Units <chr>, Type <chr>, Dilution <chr>,
#> #   PlateScale_Reference <dbl>, CalReference <dbl>,
#> #   Cal_Example_Adat_Set001 <dbl>, ColCheck <chr>,
#> #   CalQcRatio_Example_Adat_Set001_170255 <dbl>,
#> #   QcReference_170255 <dbl>, Cal_Example_Adat_Set002 <dbl>, …
…
