== SomaScan Data ===============================================================
     Attributes intact    v
     Rows                 192
     Columns              5318
     Clinical Data        34
     Features             5284
-- Column Meta -----------------------------------------------------------------
i SeqId, SeqIdVersion, SomaId, TargetFullName, Target, UniProt, EntrezGeneID,
i EntrezGeneSymbol, Organism, Units, Type, Dilution, PlateScale_Reference,
i CalReference, Cal_Example_Adat_Set001, ColCheck,
i CalQcRatio_Example_Adat_Set001_170255, QcReference_170255,
i Cal_Example_Adat_Set002, CalQcRatio_Example_Adat_Set002_170255, Dilution2
-- Header Data -----------------------------------------------------------------
# A tibble: 35 x 2
   Key                  Value                                                   
   <chr>                <chr>                                                   
 1 AdatId               GID-1234-56-789-abcdef                                  
 2 Version              1.2                                                     
 3 AssayType            PharmaServices                                          
 4 AssayVersion         V4                                                      
 5 AssayRobot           Fluent 1 L-307                                          
 6 Legal                Experiment details and data have been processed to prot~
 7 CreatedBy            PharmaServices                                          
 8 CreatedDate          2020-07-24                                              
 9 EnteredBy            Technician1                                             
10 ExpDate              2020-06-18, 2020-07-20                                  
11 GeneratedBy          Px (Build:  : ), Canopy_0.1.1                           
12 RunNotes             2 columns ('Age' and 'Sex') have been added to this ADA~
13 ProcessSteps         Raw RFU, Hyb Normalization, medNormInt (SampleId), plat~
14 ProteinEffectiveDate 2019-08-06                                              
15 StudyMatrix          EDTA Plasma                                             
# ... with 20 more rows
# i Use `print(n = ...)` to see more rows
…
