== SomaScan Data ===============================================================
     Attributes intact    x
     Rows                 192
     Columns              5318
     Clinical Data        34
     Features             5284
-- Header Data -----------------------------------------------------------------
     No Header.Meta       ! ADAT columns were probably modified !
-- Tibble ----------------------------------------------------------------------
# A tibble: 192 x 5,319
   row_names     PlateId Plate~1 Scann~2 Plate~3 SlideId Subar~4 Sampl~5 Sampl~6
   <chr>         <chr>   <chr>   <chr>   <chr>     <dbl>   <dbl> <chr>   <chr>  
 1 258495800012~ Exampl~ 2020-0~ SG1521~ H9      2.58e11       3 1       Sample 
 2 258495800004~ Exampl~ 2020-0~ SG1521~ H8      2.58e11       7 2       Sample 
 3 258495800010~ Exampl~ 2020-0~ SG1521~ H7      2.58e11       8 3       Sample 
 4 258495800003~ Exampl~ 2020-0~ SG1521~ H6      2.58e11       4 4       Sample 
 5 258495800009~ Exampl~ 2020-0~ SG1521~ H5      2.58e11       4 5       Sample 
 6 258495800012~ Exampl~ 2020-0~ SG1521~ H4      2.58e11       8 6       Sample 
 7 258495800001~ Exampl~ 2020-0~ SG1521~ H3      2.58e11       3 7       Sample 
 8 258495800004~ Exampl~ 2020-0~ SG1521~ H2      2.58e11       8 8       Sample 
 9 258495800001~ Exampl~ 2020-0~ SG1521~ H12     2.58e11       8 9       Sample 
10 258495800004~ Exampl~ 2020-0~ SG1521~ H11     2.58e11       3 170261  Calibr~
# ... with 182 more rows, 5,310 more variables: PercentDilution <int>,
#   SampleMatrix <chr>, Barcode <lgl>, Barcode2d <chr>, SampleName <lgl>,
#   SampleNotes <lgl>, AliquotingNotes <lgl>, SampleDescription <chr>,
#   AssayNotes <lgl>, TimePoint <lgl>, ..., and abbreviated variable names
#   1: PlateRunDate, 2: ScannerID, 3: PlatePosition, 4: Subarray, 5: SampleId,
#   6: SampleType
…
