Group Generics for soma_adat Class Objects — groupGenerics • SomaDataIO
…
#> ══ SomaScan Data ═══════════════════════════════════════════════════════════════
#>      Attributes intact    ✓
#>      Rows                 192
#>      Columns              5318
#>      Clinical Data        34
#>      Features             5284
#> ── Column Meta ─────────────────────────────────────────────────────────────────
#> ℹ SeqId, SeqIdVersion, SomaId, TargetFullName, Target, UniProt,
#> ℹ EntrezGeneID, EntrezGeneSymbol, Organism, Units, Type, Dilution,
#> ℹ PlateScale_Reference, CalReference, Cal_Example_Adat_Set001,
#> ℹ ColCheck, CalQcRatio_Example_Adat_Set001_170255, QcReference_170255,
#> ℹ Cal_Example_Adat_Set002, CalQcRatio_Example_Adat_Set002_170255,
#> ℹ Dilution2
#> ── Tibble ──────────────────────────────────────────────────────────────────────
#> # A tibble: 192 × 5,319
#>    row_names     PlateId Plate…¹ Scann…² Plate…³ SlideId Subar…⁴ Sampl…⁵ Sampl…⁶
#>    <chr>         <chr>   <chr>   <chr>   <chr>     <dbl>   <dbl> <chr>   <chr>  
#>  1 258495800012… Exampl… 2020-0… SG1521… H9      2.58e11       3 1       Sample 
#>  2 258495800004… Exampl… 2020-0… SG1521… H8      2.58e11       7 2       Sample 
#>  3 258495800010… Exampl… 2020-0… SG1521… H7      2.58e11       8 3       Sample 
#>  4 258495800003… Exampl… 2020-0… SG1521… H6      2.58e11       4 4       Sample 
#>  5 258495800009… Exampl… 2020-0… SG1521… H5      2.58e11       4 5       Sample 
#>  6 258495800012… Exampl… 2020-0… SG1521… H4      2.58e11       8 6       Sample 
#>  7 258495800001… Exampl… 2020-0… SG1521… H3      2.58e11       3 7       Sample 
#>  8 258495800004… Exampl… 2020-0… SG1521… H2      2.58e11       8 8       Sample 
#>  9 258495800001… Exampl… 2020-0… SG1521… H12     2.58e11       8 9       Sample 
#> 10 258495800004… Exampl… 2020-0… SG1521… H11     2.58e11       3 170261  Calibr…
#> # … with 182 more rows, 5,310 more variables: PercentDilution <int>,
#> #   SampleMatrix <chr>, Barcode <lgl>, Barcode2d <chr>, SampleName <lgl>,
#> #   SampleNotes <lgl>, AliquotingNotes <lgl>, SampleDescription <chr>,
#> #   AssayNotes <lgl>, TimePoint <lgl>, …, and abbreviated variable names
#> #   ¹​PlateRunDate, ²​ScannerID, ³​PlatePosition, ⁴​Subarray, ⁵​SampleId, …
…
