Example Data and Objects — SomaScanObjects • SomaDataIO
…
#> ══ SomaScan Data ═══════════════════════════════════════════════════════════════
#>      Attributes intact    ✓
#>      Rows                 192
#>      Columns              5318
#>      Clinical Data        34
#>      Features             5284
#> ── Column Meta ─────────────────────────────────────────────────────────────────
#> ℹ SeqId, SeqIdVersion, SomaId, TargetFullName, Target, UniProt,
#> ℹ EntrezGeneID, EntrezGeneSymbol, Organism, Units, Type, Dilution,
#> ℹ PlateScale_Reference, CalReference, Cal_Example_Adat_Set001,
#> ℹ ColCheck, CalQcRatio_Example_Adat_Set001_170255, QcReference_170255,
#> ℹ Cal_Example_Adat_Set002, CalQcRatio_Example_Adat_Set002_170255,
#> ℹ Dilution2
#> ── Tibble ──────────────────────────────────────────────────────────────────────
#> # A tibble: 192 × 5,319
#>    row_names     PlateId Plate…¹ Scann…² Plate…³ SlideId Subar…⁴ Sampl…⁵ Sampl…⁶
#>    <chr>         <chr>   <chr>   <chr>   <chr>     <dbl>   <dbl> <chr>   <chr>  
#>  1 258495800012… Exampl… 2020-0… SG1521… H9      2.58e11       3 1       Sample 
#>  2 258495800004… Exampl… 2020-0… SG1521… H8      2.58e11       7 2       Sample 
#>  3 258495800010… Exampl… 2020-0… SG1521… H7      2.58e11       8 3       Sample 
#>  4 258495800003… Exampl… 2020-0… SG1521… H6      2.58e11       4 4       Sample 
#>  5 258495800009… Exampl… 2020-0… SG1521… H5      2.58e11       4 5       Sample 
#>  6 258495800012… Exampl… 2020-0… SG1521… H4      2.58e11       8 6       Sample 
#>  7 258495800001… Exampl… 2020-0… SG1521… H3      2.58e11       3 7       Sample 
#>  8 258495800004… Exampl… 2020-0… SG1521… H2      2.58e11       8 8       Sample 
#>  9 258495800001… Exampl… 2020-0… SG1521… H12     2.58e11       8 9       Sample 
#> 10 258495800004… Exampl… 2020-0… SG1521… H11     2.58e11       3 170261  Calibr…
#> # … with 182 more rows, 5,310 more variables: PercentDilution <int>,
#> #   SampleMatrix <chr>, Barcode <lgl>, Barcode2d <chr>, SampleName <lgl>,
#> #   SampleNotes <lgl>, AliquotingNotes <lgl>, SampleDescription <chr>,
#> #   AssayNotes <lgl>, TimePoint <lgl>, …, and abbreviated variable names
#> #   ¹​PlateRunDate, ²​ScannerID, ³​PlatePosition, ⁴​Subarray, ⁵​SampleId,
#> #   ⁶​SampleType
…
#> ══ SomaScan Data ═══════════════════════════════════════════════════════════════
#>      Attributes intact    ✓
#>      Rows                 192
#>      Columns              5318
#>      Clinical Data        34
#>      Features             5284
#> ── Column Meta ─────────────────────────────────────────────────────────────────
#> ℹ SeqId, SeqIdVersion, SomaId, TargetFullName, Target, UniProt,
#> ℹ EntrezGeneID, EntrezGeneSymbol, Organism, Units, Type, Dilution,
#> ℹ PlateScale_Reference, CalReference, Cal_Example_Adat_Set001,
#> ℹ ColCheck, CalQcRatio_Example_Adat_Set001_170255, QcReference_170255,
#> ℹ Cal_Example_Adat_Set002, CalQcRatio_Example_Adat_Set002_170255,
#> ℹ Dilution2
#> ── Header Data ─────────────────────────────────────────────────────────────────
#> # A tibble: 35 × 2
#>    Key                  Value                                                   
#>    <chr>                <chr>                                                   
#>  1 AdatId               GID-1234-56-789-abcdef                                  
#>  2 Version              1.2                                                     
#>  3 AssayType            PharmaServices                                          
#>  4 AssayVersion         V4                                                      
#>  5 AssayRobot           Fluent 1 L-307                                          
#>  6 Legal                Experiment details and data have been processed to prot…
#>  7 CreatedBy            PharmaServices                                          
#>  8 CreatedDate          2020-07-24                                              
#>  9 EnteredBy            Technician1                                             
#> 10 ExpDate              2020-06-18, 2020-07-20                                  
#> 11 GeneratedBy          Px (Build:  : ), Canopy_0.1.1                           
#> 12 RunNotes             2 columns ('Age' and 'Sex') have been added to this ADA…
#> 13 ProcessSteps         Raw RFU, Hyb Normalization, medNormInt (SampleId), plat…
#> 14 ProteinEffectiveDate 2019-08-06                                              
#> 15 StudyMatrix          EDTA Plasma                                             
#> # … with 20 more rows
…
class(example_data)
#> [1] "soma_adat"  "data.frame"

# Features/Analytes
head(ex_analytes, 20L)
#>  [1] "seq.10000.28"  "seq.10001.7"   "seq.10003.15"  "seq.10006.25" 
#>  [5] "seq.10008.43"  "seq.10011.65"  "seq.10012.5"   "seq.10013.34" 
#>  [9] "seq.10014.31"  "seq.10015.119" "seq.10021.1"   "seq.10022.207"
#> [13] "seq.10023.32"  "seq.10024.44"  "seq.10030.8"   "seq.10034.16" 
#> [17] "seq.10035.6"   "seq.10036.201" "seq.10037.98"  "seq.10040.63" 

# Feature info table (annotations)
ex_anno_tbl
#> # A tibble: 5,284 × 22
#>    AptName   SeqId SeqId…¹ SomaId Targe…² Target UniProt Entre…³ Entre…⁴ Organ…⁵
#>    <chr>     <chr>   <dbl> <chr>  <chr>   <chr>  <chr>   <chr>   <chr>   <chr>  
#>  1 seq.1000… 1000…       3 SL019… Beta-c… CRBB2  P43320  "1415"  "CRYBB… Human  
#>  2 seq.1000… 1000…       3 SL002… RAF pr… c-Raf  P04049  "5894"  "RAF1"  Human  
#>  3 seq.1000… 1000…       3 SL019… Zinc f… ZNF41  P51814  "7592"  "ZNF41" Human  
#>  4 seq.1000… 1000…       3 SL019… ETS do… ELK1   P19419  "2002"  "ELK1"  Human  
#>  5 seq.1000… 1000…       3 SL019… Guanyl… GUC1A  P43080  "2978"  "GUCA1… Human  
#>  6 seq.1001… 1001…       3 SL019… Inosit… OCRL   Q01968  "4952"  "OCRL"  Human  
#>  7 seq.1001… 1001…       3 SL014… SAM po… SPDEF  O95238  "25803" "SPDEF" Human  
#>  8 seq.1001… 1001…       3 SL025… Fc_MOU… Fc_MO… Q99LC4  ""      ""      Mouse  
#>  9 seq.1001… 1001…       3 SL007… Zinc f… SLUG   O43623  "6591"  "SNAI2" Human  
#> 10 seq.1001… 1001…       3 SL014… Voltag… KCAB2  Q13303  "8514"  "KCNAB… Human  
#> # … with 5,274 more rows, 12 more variables: Units <chr>, Type <chr>,
#> #   Dilution <chr>, PlateScale_Reference <dbl>, CalReference <dbl>,
#> #   Cal_Example_Adat_Set001 <dbl>, ColCheck <chr>,
#> #   CalQcRatio_Example_Adat_Set001_170255 <dbl>, QcReference_170255 <dbl>,
#> #   Cal_Example_Adat_Set002 <dbl>, CalQcRatio_Example_Adat_Set002_170255 <dbl>,
#> #   Dilution2 <dbl>, and abbreviated variable names ¹​SeqIdVersion,
#> #   ²​TargetFullName, ³​EntrezGeneID, ⁴​EntrezGeneSymbol, ⁵​Organism
…
