ANOVA Three-Group Analysis • SomaDataIO
…
Compare Three Groups
(A/B/C)

Get annotations via getAnalyteInfo():

aov_tbl <- getAnalyteInfo(cleanData) |>
  select(AptName, SeqId, Target = TargetFullName, EntrezGeneSymbol, UniProt)

# Feature data info:
#   Subset via dplyr::filter(aov_tbl, ...) here to
#   restrict analysis to only certain analytes

aov_tbl
#> # A tibble: 4,979 × 5
#>    AptName       SeqId     Target              EntrezGeneSymbol UniProt
#>    <chr>         <chr>     <chr>               <chr>            <chr>  
#>  1 seq.10000.28  10000-28  Beta-crystallin B2  CRYBB2           P43320 
#>  2 seq.10001.7   10001-7   RAF proto-oncogene… RAF1             P04049 
#>  3 seq.10003.15  10003-15  Zinc finger protei… ZNF41            P51814 
#>  4 seq.10006.25  10006-25  ETS domain-contain… ELK1             P19419 
#>  5 seq.10008.43  10008-43  Guanylyl cyclase-a… GUCA1A           P43080 
#>  6 seq.10011.65  10011-65  Inositol polyphosp… OCRL             Q01968 
#>  7 seq.10012.5   10012-5   SAM pointed domain… SPDEF            O95238 
#>  8 seq.10014.31  10014-31  Zinc finger protei… SNAI2            O43623 
#>  9 seq.10015.119 10015-119 Voltage-gated pota… KCNAB2           Q13303 
#> 10 seq.10022.207 10022-207 DNA polymerase eta  POLH             Q9Y253 
#> # ℹ 4,969 more rows
…
aov_tbl <- aov_tbl |>
  mutate(
    formula   = map(AptName, ~ as.formula(paste(.x, "~ Group"))), # create formula
    aov_model = map(formula, ~ stats::aov(.x, data = cleanData)),  # fit ANOVA-models
    aov_smry  = map(aov_model, summary) |> map(1L),      # summary() method
    F.stat    = map(aov_smry, "F value") |> map_dbl(1L), # pull out F-statistic
    p.value   = map(aov_smry, "Pr(>F)") |> map_dbl(1L),  # pull out p-values
    fdr       = p.adjust(p.value, method = "BH")         # FDR multiple testing
  ) |>
  arrange(p.value) |>            # re-order by `p-value`
  mutate(rank = row_number())    # add numeric ranks

# View analysis tibble
aov_tbl
#> # A tibble: 4,979 × 12
#>    AptName    SeqId Target EntrezGeneSymbol UniProt formula   aov_model
#>    <chr>      <chr> <chr>  <chr>            <chr>   <list>    <list>   
#>  1 seq.8468.… 8468… Prost… KLK3             P07288  <formula> <aov>    
#>  2 seq.6580.… 6580… Pregn… PZP              P20742  <formula> <aov>    
#>  3 seq.7926.… 7926… Kunit… SPINT3           P49223  <formula> <aov>    
#>  4 seq.3032.… 3032… Folli… CGA FSHB         P01215… <formula> <aov>    
#>  5 seq.16892… 1689… Ecton… ENPP2            Q13822  <formula> <aov>    
#>  6 seq.7139.… 7139… SLIT … SLITRK4          Q8IW52  <formula> <aov>    
#>  7 seq.5763.… 5763… Beta-… DEFB104A         Q8WTQ1  <formula> <aov>    
#>  8 seq.9282.… 9282… Cyste… CRISP2           P16562  <formula> <aov>    
#>  9 seq.4914.… 4914… Human… CGA CGB          P01215… <formula> <aov>    
#> 10 seq.2953.… 2953… Lutei… CGA LHB          P01215… <formula> <aov>    
#> # ℹ 4,969 more rows
#> # ℹ 5 more variables: aov_smry <list>, F.stat <dbl>, p.value <dbl>,
#> #   fdr <dbl>, rank <int>
…
Create a plotting tibble in the “long” format for
ggplot2:

target_map <- head(aov_tbl, 12L) |>     # mapping table
  select(AptName, Target)               # SeqId -> Target

plot_tbl <- cleanData |>
  select(Group, target_map$AptName) |>    # top 12 analytes
  pivot_longer(cols = -Group, names_to = "AptName", values_to = "RFU") |>
  left_join(target_map, by = "AptName") |>
  # order factor levels by 'aov_tbl' rank to order plots below
  mutate(Target = factor(Target, levels = target_map$Target))

plot_tbl
#> # A tibble: 2,016 × 4
#>    Group AptName         RFU Target                                    
#>    <chr> <chr>         <dbl> <fct>                                     
#>  1 A     seq.8468.19  -1.06  Prostate-specific antigen                 
#>  2 A     seq.6580.29   0.298 Pregnancy zone protein                    
#>  3 A     seq.7926.13  -1.08  Kunitz-type protease inhibitor 3          
#>  4 A     seq.3032.11   0.398 Follicle stimulating hormone              
#>  5 A     seq.16892.23  1.53  Ectonucleotide pyrophosphatase/phosphodie…
#>  6 A     seq.7139.14  -0.750 SLIT and NTRK-like protein 4              
#>  7 A     seq.5763.67  -0.634 Beta-defensin 104                         
#>  8 A     seq.9282.12  -1.12  Cysteine-rich secretory protein 2         
#>  9 A     seq.4914.10   1.74  Human Chorionic Gonadotropin              
#> 10 A     seq.2953.31  -0.425 Luteinizing hormone                       
#> # ℹ 2,006 more rows
…
