Binary Classification • SomaDataIO
…
LR_tbl <- getAnalyteInfo(train) |>
  select(AptName, SeqId, Target = TargetFullName, EntrezGeneSymbol, UniProt) |>
  mutate(
    formula  = map(AptName, ~ as.formula(paste("Group ~", .x))),  # create formula
    model    = map(formula, ~ stats::glm(.x, data = train, family = "binomial", model = FALSE)),  # fit glm()
    beta_hat = map(model, coef) |> map_dbl(2L),     # pull out coef Beta
    p.value  = map2_dbl(model, AptName, ~ {
      summary(.x)$coefficients[.y, "Pr(>|z|)"] }),  # pull out p-values
    fdr      = p.adjust(p.value, method = "BH")     # FDR correction multiple testing
  ) |>
  arrange(p.value) |>            # re-order by `p-value`
  mutate(rank = row_number())    # add numeric ranks

LR_tbl
#> # A tibble: 4,979 × 11
#>    AptName      SeqId   Target EntrezGeneSymbol UniProt formula   model
#>    <chr>        <chr>   <chr>  <chr>            <chr>   <list>    <lis>
#>  1 seq.6580.29  6580-29 Pregn… PZP              P20742  <formula> <glm>
#>  2 seq.5763.67  5763-67 Beta-… DEFB104A         Q8WTQ1  <formula> <glm>
#>  3 seq.7926.13  7926-13 Kunit… SPINT3           P49223  <formula> <glm>
#>  4 seq.3032.11  3032-11 Folli… CGA FSHB         P01215… <formula> <glm>
#>  5 seq.7139.14  7139-14 SLIT … SLITRK4          Q8IW52  <formula> <glm>
#>  6 seq.16892.23 16892-… Ecton… ENPP2            Q13822  <formula> <glm>
#>  7 seq.2953.31  2953-31 Lutei… CGA LHB          P01215… <formula> <glm>
#>  8 seq.9282.12  9282-12 Cyste… CRISP2           P16562  <formula> <glm>
#>  9 seq.4914.10  4914-10 Human… CGA CGB          P01215… <formula> <glm>
#> 10 seq.2474.54  2474-54 Serum… APCS             P02743  <formula> <glm>
#> # ℹ 4,969 more rows
#> # ℹ 4 more variables: beta_hat <dbl>, p.value <dbl>, fdr <dbl>,
#> #   rank <int>
…
