Linear Regression • SomaDataIO
…
LinR_tbl <- getAnalyteInfo(train) |>                # `train` from above
  select(AptName, SeqId, Target = TargetFullName, EntrezGeneSymbol, UniProt) |>
  mutate(
    formula = map(AptName, ~ as.formula(paste("Age ~", .x, collapse = " + "))),
    model   = map(formula, ~ stats::lm(.x, data = train, model = FALSE)), # fit models
    slope   = map(model, coef) |> map_dbl(2L),     # pull out B_1
    p.value = map2_dbl(model, AptName, ~ {
      summary(.x)$coefficients[.y, "Pr(>|t|)"] }), # pull out p-values
    fdr     = p.adjust(p.value, method = "BH")     # FDR for multiple testing
  ) |>
  arrange(p.value) |>            # re-order by `p-value`
  mutate(rank = row_number())    # add numeric ranks

LinR_tbl
#> # A tibble: 4,979 × 11
#>    AptName  SeqId Target EntrezGeneSymbol UniProt formula   model slope
#>    <chr>    <chr> <chr>  <chr>            <chr>   <list>    <lis> <dbl>
#>  1 seq.304… 3045… Pleio… PTN              P21246  <formula> <lm>   7.96
#>  2 seq.437… 4374… Growt… GDF15            Q99988  <formula> <lm>   7.20
#>  3 seq.153… 1538… Fatty… FABP4            P15090  <formula> <lm>   6.91
#>  4 seq.156… 1564… Trans… TAGLN            Q01995  <formula> <lm>   7.16
#>  5 seq.449… 4496… Macro… MMP12            P39900  <formula> <lm>   6.77
#>  6 seq.639… 6392… WNT1-… WISP2            O76076  <formula> <lm>   6.80
#>  7 seq.155… 1553… Macro… MSR1             P21757  <formula> <lm>   6.49
#>  8 seq.141… 1413… Inter… IL1R2            P27930  <formula> <lm>  -6.08
#>  9 seq.536… 5364… Prote… SET              Q01105  <formula> <lm>  -6.03
#> 10 seq.336… 3364… Cathe… CTSV             O60911  <formula> <lm>  -6.15
#> # ℹ 4,969 more rows
#> # ℹ 3 more variables: p.value <dbl>, fdr <dbl>, rank <int>
…
