…
#>      Signal Space         5k
#>      Attributes intact    ✓
#>      Rows                 10
#>      Columns              5318
#>      Clinical Data        34
#>      Features             5284
#> ── Column Meta ─────────────────────────────────────────────────────────────────
#> ℹ SeqId, SeqIdVersion, SomaId, TargetFullName, Target, UniProt,
#> ℹ EntrezGeneID, EntrezGeneSymbol, Organism, Units, Type, Dilution,
#> ℹ PlateScale_Reference, CalReference, Cal_Example_Adat_Set001,
#> ℹ ColCheck, CalQcRatio_Example_Adat_Set001_170255, QcReference_170255,
#> ℹ Cal_Example_Adat_Set002, CalQcRatio_Example_Adat_Set002_170255,
#> ℹ Dilution2
#> ── Header Data ─────────────────────────────────────────────────────────────────
#> # A tibble: 35 × 2
#>    Key                  Value                                                   
#>    <chr>                <chr>                                                   
#>  1 AdatId               GID-1234-56-789-abcdef                                  
#>  2 Version              1.2                                                     
#>  3 AssayType            PharmaServices                                          
#>  4 AssayVersion         V4                                                      
#>  5 AssayRobot           Fluent 1 L-307                                          
#>  6 Legal                Experiment details and data have been processed to prot…
#>  7 CreatedBy            PharmaServices                                          
#>  8 CreatedDate          2020-07-24                                              
#>  9 EnteredBy            Technician1                                             
#> 10 ExpDate              2020-06-18, 2020-07-20                                  
#> 11 GeneratedBy          Px (Build:  : ), Canopy_0.1.1                           
#> 12 RunNotes             2 columns ('Age' and 'Sex') have been added to this ADA…
#> 13 ProcessSteps         Raw RFU, Hyb Normalization, medNormInt (SampleId), plat…
#> 14 ProteinEffectiveDate 2019-08-06                                              
#> 15 StudyMatrix          EDTA Plasma                                             
#> # ℹ 20 more rows
…
------------------------------------------------------------------------

## Wrangling

### Attributes Contain File and Feature Information

``` r
names(attributes(my_adat))
#> [1] "names"       "class"       "row.names"   "Header.Meta" "Col.Meta"   
#> [6] "file_specs"  "row_meta"

# The `Col.Meta` attribute contains
# target annotation information
attr(my_adat, "Col.Meta")
#> # A tibble: 5,284 × 21
#>    SeqId     SeqIdVersion SomaId   TargetFullName    Target UniProt EntrezGeneID
#>    <chr>            <dbl> <chr>    <chr>             <chr>  <chr>   <chr>       
#>  1 10000-28             3 SL019233 Beta-crystallin … CRBB2  P43320  "1415"      
#>  2 10001-7              3 SL002564 RAF proto-oncoge… c-Raf  P04049  "5894"      
#>  3 10003-15             3 SL019245 Zinc finger prot… ZNF41  P51814  "7592"      
#>  4 10006-25             3 SL019228 ETS domain-conta… ELK1   P19419  "2002"      
#>  5 10008-43             3 SL019234 Guanylyl cyclase… GUC1A  P43080  "2978"      
#>  6 10011-65             3 SL019246 Inositol polypho… OCRL   Q01968  "4952"      
#>  7 10012-5              3 SL014669 SAM pointed doma… SPDEF  O95238  "25803"     
#>  8 10013-34             3 SL025418 Fc_MOUSE          Fc_MO… Q99LC4  ""          
#>  9 10014-31             3 SL007803 Zinc finger prot… SLUG   O43623  "6591"      
#> 10 10015-119            3 SL014924 Voltage-gated po… KCAB2  Q13303  "8514"      
#> # ℹ 5,274 more rows
#> # ℹ 14 more variables: EntrezGeneSymbol <chr>, Organism <chr>, Units <chr>,
#> #   Type <chr>, Dilution <chr>, PlateScale_Reference <dbl>, CalReference <dbl>,
#> #   Cal_Example_Adat_Set001 <dbl>, ColCheck <chr>,
#> #   CalQcRatio_Example_Adat_Set001_170255 <dbl>, QcReference_170255 <dbl>,
#> #   Cal_Example_Adat_Set002 <dbl>, CalQcRatio_Example_Adat_Set002_170255 <dbl>,
#> #   Dilution2 <dbl>
```
…
### Feature Data

The
[`getAnalyteInfo()`](https://somalogic.github.io/SomaDataIO/reference/getAnalyteInfo.md)
function creates a lookup table that links analyte feature names in the
`soma_adat` object to the annotation data in
[`?Col.Meta`](https://somalogic.github.io/SomaDataIO/reference/Col.Meta.md)
via the common index-key, `AptName`, in column 1:

``` r
getAnalyteInfo(my_adat)
#> # A tibble: 5,284 × 22
#>    AptName  SeqId SeqIdVersion SomaId TargetFullName Target UniProt EntrezGeneID
#>    <chr>    <chr>        <dbl> <chr>  <chr>          <chr>  <chr>   <chr>       
#>  1 seq.100… 1000…            3 SL019… Beta-crystall… CRBB2  P43320  "1415"      
#>  2 seq.100… 1000…            3 SL002… RAF proto-onc… c-Raf  P04049  "5894"      
#>  3 seq.100… 1000…            3 SL019… Zinc finger p… ZNF41  P51814  "7592"      
#>  4 seq.100… 1000…            3 SL019… ETS domain-co… ELK1   P19419  "2002"      
#>  5 seq.100… 1000…            3 SL019… Guanylyl cycl… GUC1A  P43080  "2978"      
#>  6 seq.100… 1001…            3 SL019… Inositol poly… OCRL   Q01968  "4952"      
#>  7 seq.100… 1001…            3 SL014… SAM pointed d… SPDEF  O95238  "25803"     
#>  8 seq.100… 1001…            3 SL025… Fc_MOUSE       Fc_MO… Q99LC4  ""          
#>  9 seq.100… 1001…            3 SL007… Zinc finger p… SLUG   O43623  "6591"      
#> 10 seq.100… 1001…            3 SL014… Voltage-gated… KCAB2  Q13303  "8514"      
#> # ℹ 5,274 more rows
#> # ℹ 14 more variables: EntrezGeneSymbol <chr>, Organism <chr>, Units <chr>,
#> #   Type <chr>, Dilution <chr>, PlateScale_Reference <dbl>, CalReference <dbl>,
#> #   Cal_Example_Adat_Set001 <dbl>, ColCheck <chr>,
#> #   CalQcRatio_Example_Adat_Set001_170255 <dbl>, QcReference_170255 <dbl>,
#> #   Cal_Example_Adat_Set002 <dbl>, CalQcRatio_Example_Adat_Set002_170255 <dbl>,
#> #   Dilution2 <dbl>
```
…
